<?xml version="1.0" encoding="UTF-8" standalone="no"?>
<!-- Created with Inkscape (http://www.inkscape.org/) -->

<svg
   xmlns:dc="http://purl.org/dc/elements/1.1/"
   xmlns:cc="http://creativecommons.org/ns#"
   xmlns:rdf="http://www.w3.org/1999/02/22-rdf-syntax-ns#"
   xmlns:svg="http://www.w3.org/2000/svg"
   xmlns="http://www.w3.org/2000/svg"
   xmlns:xlink="http://www.w3.org/1999/xlink"
   xmlns:sodipodi="http://sodipodi.sourceforge.net/DTD/sodipodi-0.dtd"
   xmlns:inkscape="http://www.inkscape.org/namespaces/inkscape"
   width="768"
   height="256"
   viewBox="0 0 203.19999 67.733338"
   version="1.1"
   id="svg8"
   inkscape:version="0.92.3 (2405546, 2018-03-11)"
   sodipodi:docname="excel2simapro.svg"
   inkscape:export-filename="C:\Users\costegus\Documents\ELSA data\ELDAM\files\icons\excel2simapro.png"
   inkscape:export-xdpi="11.973265"
   inkscape:export-ydpi="11.973265">
  <defs
     id="defs2" />
  <sodipodi:namedview
     id="base"
     pagecolor="#ffffff"
     bordercolor="#666666"
     borderopacity="1.0"
     inkscape:pageopacity="0.0"
     inkscape:pageshadow="2"
     inkscape:zoom="0.98994949"
     inkscape:cx="91.52248"
     inkscape:cy="345.70493"
     inkscape:document-units="mm"
     inkscape:current-layer="layer1"
     showgrid="false"
     units="px"
     fit-margin-top="0"
     fit-margin-left="0"
     fit-margin-right="0"
     fit-margin-bottom="0"
     inkscape:window-width="1920"
     inkscape:window-height="1017"
     inkscape:window-x="-8"
     inkscape:window-y="-8"
     inkscape:window-maximized="1" />
  <metadata
     id="metadata5">
    <rdf:RDF>
      <cc:Work
         rdf:about="">
        <dc:format>image/svg+xml</dc:format>
        <dc:type
           rdf:resource="http://purl.org/dc/dcmitype/StillImage" />
        <dc:title />
      </cc:Work>
    </rdf:RDF>
  </metadata>
  <g
     inkscape:label="Calque 1"
     inkscape:groupmode="layer"
     id="layer1"
     transform="translate(29.189209,-262.46515)">
    <image
       y="262.58118"
       x="106.11675"
       id="image40"
       xlink:href="data:image/png;base64,iVBORw0KGgoAAAANSUhEUgAAAQAAAAEACAYAAABccqhmAAAACXBIWXMAAA7EAAAOxAGVKw4bAAAg AElEQVR42u19d1Rc972n97lnk2cntnMSe89JvFnbOWvnnz0pm+Pk+Zxn5+V5s/F7m0iooIYEoore RBEdhiYYQMDQhZAlkIRQA0kIphemzzADAiRABXXRi2jz2/u9shxbVgExA/fe+f58PsdHoure+/3c b/18n3vuuef+CwKBcFrgRUAgkAAQCAQSAAKBQAJAIBBIAAgEAgkAgUAgASAQCCQABAKBBIBAIJAA EAgEEgACgUACQCAQSAAIBAIJAIFAIAEgEAgkAAQCgQSAQCCQABAIBBIAAoFAAkAgEEgACAQCCQCB QCABIBAIJABWIC4u7p9qFbWvnu08+/aZ/mPvZqqS3k2Txv33ClPhH6ushZ/zlOGfh5xz+zxG7r82 Q70rLtuQEJ+pi40Pkm6O9xSu+RoRcs94+NgDZKmjo8KE3v8JXwso1PM+r7GWf16h3/ObPOpniPvP vCvRN74FP7uuru55vBcIJAAHAQwMDK3SUPn6MWvVhxXG/D/nGVI8cihDDZG4p8Uo/Y/vUgZYouW+ fYHiLX0Bok39AeLNw4FStyk/8bop75bVU16ta6a9hWvIA3i2ribbW1d9DU+hC/nmx71a1tgoYrgH X+vd4jLlL9kwBd8vSLLldhD1M6JVfn3Uz9XEKYIao+U+OTx1TBxPF7N2b3vhnw8ZSj7MEca9XqvI RnJAIAEs5m1+5syZ/1rfXfWLvWbBZ0WGDI98U1p8YltwToomrDFU5iENl3sMBIo3T3qL1s0+ypBX AvA7wO/iI1w3HSzeMhks2TawQ7RBGiPf0Rgj98vhG1Liy0w5Hoc79/75mPXQh5WGnNf5fP7LeM+R AJwe3d38l6sMRe9Udxb/lW/gpSS1hZzaKfe6GCzZOu4jXk8Z+Vrq7bzyRr40clhLfMWus2FS98ko hc8ARQrSbG3swdL2/Ggguhprzc+A+IAA8ZlAAuD8W76uue61KkPBh/CGz9LF1kbKvK0Bkk1jYChs NfQFEwJFZj4iihBE64m/aKMtRLJ1JErp25OmDj8FIU2eJvkvRcr09+q0da9h+IAEwBmj368VvFmg yfndbm1CZKI65FyoxH3AT7huhgkuvD3gJXQhfpRRB0ndSKTCi+xSBZAUTTjJ1EWTHEMiyTOmkHxT Kv1/+HOmPoakaSNIQlsQiVb6kjCZOwmRbANCmNgp976Uog4V5+iTdpcac9YAWTbIGn6ARoMEwCrA Q1tjKP04WxcbH6PcIYMEmlfrmnm2GzvE+8HSrSRJHUKK2jNJ/YUaIhloJpY7BtI/eoHcnLxOhu8N kvGZUTI5O0HuzU2R6fl7ZGZ+mvr/NP3nqblJ6uNjZGR6iNyZukmujvWTnuEOor+lIsKrTeToxS9J dWcRKTbvni40ZQzw9UkncvXxIVWmnH/Zby78IXoHSADMfNsL416oNua9S7my/tEKvxNg9N6ta22s dtspLyVQspmkaiLIl12lRHldRC6NXqSMd5gy6hlio/6z97HZbGSW+t4Ts+Pk7tQtcnGki6ivy+ab +huGqiz5ktL2PF6BlveHckn5W0gGSADMeNu3l37Ma9uZQbmzVt/WtTPbWe7eB0g2US58DDnZd4j0 DHWQ0ZkRMm+bIyt55m3zZHh6kFhuG2wnew/dqbIWqoEM9loFnx0xHvkxkgESwPLW6JvrXsvXp/yJ imkPh0q3Um/7NTa2x/IQk3/ZVUY6B820m+6IN7x9yGCODFGhRvttve10f/1ITUeRusKcF1diKPiw srLyFTQyJACHGn6hLuuLRFXo8QDxpmHPltU2tsf1iW0hpKn/KLk+MUDmbLOETec+Gdwl2huKuQNd 5ZeKzdmV1e2Cvwu0gjexvIgE4ADDDz4eKN48wvYsPrzxd7UFkDOXjpE7VKxto1xsth9IMPYMd5LG 3sMTAlO2sFCfEXmoc++v0StAAlia4Zu4Y/iAUNk2crinmtyg3vjzHDD8h88c5RUAqUHysLa76hp4 BRXG4r826svfQq8ACWBhhi8s+H6hKv2P6ZqoI1wxfG/RWsI3JpPzgxYyOz9LnOFA6fHC8Hlyqrd+ rNKaLxcYMjz3dRT/FIkACeDRhm+pe6nMnP/7ZFVoFZTy2B7jf/Otf6rvMBmdHibOeMAruD11k4iu nL1XZslTFtBEsA+JAAngH4A3AwzhRMg9BzxbXDhh+OC5pGjCiPmOjnUJPkeVE4EIhFdO3ytHIkAC ePDWz2pL+XSnzLvlfh2fG/33kOEvMmeQa+NXGFvSW3kiOHOvypKvrDQVbIFpRSQCJyMAgVDwZqYm Nj5Q7HadK/35ABi6ge694ekhtPYndh7OkxsT18jp/oaxkvacZr6et2q/dv+baKgcJwC6dVdT8LtY hf9RX+H6aS5N3u0QbyANFw/Q/fh4Fp4jAE+pqa9hrKIjv5nyCD7F8iFHCSBbkf1qgSHFM1y2vY8r sf43jf9k32E6+43n2YgABpsO9+y7UWLMzKXwLoYFHCKApo59P01WhWX7itcNcW3m3k/sSk701lHG fw8teclNRVNEd1M1V2Hha/i6tO21ltofofGymACAxQXavF+mqSOafFrXzHDN+H1E68jhC9V0Nxwe O+UHqP+gzVh0pWmqpD3nZKEu/QvQZ0SPgGUEUFf33PMHreWf7VIGqre3rp7nmvFDW29lRwE9h4/H MfMGA+OXCQweQaKwUJf997pm3mtozGwgAMr4ecqEP0UpfLq4lOX/Zp0flHbuTt1GS12G/MCVsX5S bM4a4bVFHi82ZWGikMkEADdnjy7lbwHSzV3bOWj8gFiVP+kfuYDWuUwhAYxK71T4UMTrQoLEm28k q0NKyswZv0ciYBgBwA0p0PH8giXb7nBVaBPUetQ3pJyY5GPDuTTaS8uhfcsDa3GxhUi2Xc/RJOTu M5V9IBQKX0AjX2ECeGD8gWK3Qa4av5dwDTncs5fW28Pj+HNr8gbJ1sc/dh+Dt3DtXLTCr6vQkBFY aynFisFKEYAzGD8AJLsG791By1yGAwKmgvZseovS00ux66cS24JPQiMRtJijwS8nAdQ99/xuTfxm rht/sNSNtN/RoWUuw4FuSmiphrmKhSdmXQi0lvPUkUm150uwkWg5CABEISHb7y/e3MPtBRsupLa7 klbOxePYA+HVib46eq7imXozhOvmohS+6iJtxv+DHY9o/A4kgL1mwScQg3E12/8AsFADhlfwOL7k J7p6hlZIXto9W00CRJsHU9siBIesVR+ierEDOvyqjWUfRcq9JZ4cN35YrdVypZHWzsfjyMafeaK7 paRFVOyWtG11mY9R7GgXGLJXO/m2I/t+w+aOU+9namNk21u41+H3MGBBB7Sm4nFsrb9ryEJLpDui aQt2IvL1iUUHOit/jgSwRJQ1hP0gXRNd6S1cy3njhwWi9NsfhT0ceq6M9dEKSg715ITr5uKV/mKB nv8J9Rw/jwTwjOW+BGWQv69o/RjXjf9B7A9Kt3gcd25P3iQ5hgSyHKEkVAqCJVt6eLpItwZZ2Q+Q ABaZ8S/W8f4WKN5yxxmMHx6W4721nJTwZsoBsdQSSw49WLWc99ZfsnEsTR1RVKks+jkSwAJxxHjw owRVYLszGD8gXO5Bt6HicVCtf26SHOwqX1St374hwVooF57L02T/FnpZkACeAKin5mjjBdTNmncW Aii38rHl14G1fpBL93vGWr/dvLyW1bZwqXt3iTFj0+bKza8gATzG9S/Upf0d6qrOYvzwYOpuKtFS HVTrlww026HWb8fNzNSznamLja9vzn8DCeAh1BsPvB+nCjQ7i/EDEtUhWPpzRLnPNk/0t1QkTObB PNIXbpiOVwTsKRYn/xQJ4Buuf4YmKhemrpzF+CEbXddThck/B9T6u4c6SIzSj7nTni2rZ3Yp/U/X Wkp/y7HuwWf7wpr2kv8bLN466Exvf3/xRmK9a0CLtfO5OtZPUjXhzH8BtLjYdikDz+freX/iUHLw GVx/Kh6CEUsohzkTASSpQ8nw9CBarB0P9FLkGpMIW9rGv+oe7Ckx5mziiOrQ4gU9YaOrv3jDlDMZ PwDGUEGQkgsuN0iVQy4DNPW6h6yk/Y6eGG+riem2hvJyTPQGXxDehM8BZWNH/LtHZ0ZImTV32Wv9 9kCIbNtgkTnXjwMVgsUn/mIVOyzOZvwg8625KWe10Y9Oj5AOyriP9R4keaYUsksVAA8yHdrAiC38 GwF+Ilc6Ex8mc6c/Z7chnlSfL6Zbn2GVOQiezixx/BlIBcaooaWarc9EgGjTYKzCn+0ksLilnSCq AL3TzkYAkXIvcn3iKisNH9zs5ssnSLp2J23sz+puewpX018PwqegyAOE0DfSQyZnxxc1EwHk0dhf Ty9OYX1ZuNWVJgHYbsV5AthrLvt9pMJzgOtjvo8CxKlsW+8Fb1n5tVaSrA51SFcduO7B0q20Nl9j /xHSO9L91EUoEErIrrXQAqqcWfwqXjeUpYnNYmmvwAKHfYSVr+Tqkkt2CDfYnM34AfUX97Nq7v8u 9dav7iyidxMujzLSahJCkUGeKZWIB86SW5PX6caeb9f6bcR4W0O3UnPt+fAVuk7zNDF7WEgCC6z7 95T9PkEZeH2l+rNXOv7X3lSwxvghVOEbk1csuQZxfYxqBznYXUF6hjpozwlChAvDnXT4wNXnBEgg i30ksKCW35eKTFlZoRJ3p3z7Q6Ls8lgfK4wfRmhzDYmMKKvB7wCCqUXtmUR89SxJ00Zwv1X8KxLI Zw8JPP2Tjlmq/0eKOqJjudxJ5tX/Q+jxVKafidlxUm7NW5Bc9vJ7BWuIs+SOHoQDLCGBBST/TAUe O+XeMxDnOSMBFJrTl1z2cvSB9uRzl08+s2IuwmnDgSd/QqOq8Z/5+qQT/pKNTnszof+f6eu+oKEn ygG6eYilhQOp6qgshpcIn/wJhzr3/jpBFXyLzQ0bS81ut1w5xWjjn52fJQe6yomzemiMTiCL1w0x vFnoyfP++frU0HCF56wz1v4fVAD0t9oY//aPkHuiwTG4WShZEeLH0NmBx39Qope8lW9MaQuRbnPa mwehT89QJ6M7/UBBh4399M6EIPHWQYElxzNOGPcCawig3rL/D8masDvOnFiCZRTwhmXqGZ8ZoxeT opGx4FmSbOvfrUn6N4aNEj9x5j9mlzLA5syx5U6FN7k9eYOxBADtt0FSNzQwVmA1iVb4dB22HvyM QQtKH/0BPp//cr4++SD0ejvzTYPONSZLgEkGzqL7zyLAvUpSBasrzXm/ZDYBSPhvJaiCNVyY2Fqa BmAwGWFoExDU/r/sKkPDYp+03HycMqA+Thj3JmMJoFCe+VG4zOuas79dYJJubGaEkQQAzUkFZh4a FRs9gZY1tNAoAxqFHrPnz5i7NkC8ZdrZbxSTCQBGb7P1u9CgWNsotGE625AQv8LlwUd/IFebHAfr r539JkEIMDrDzBBgeu4erVOAxsTm8qDbYE27YOMKJgW/+5cCreDFhLbgMuwsW0V2tQWQ4XvMFAKF efuqjgI0JJZLzYdK3bV58pRfMoYAjhoqX49S+EjwBq0i1HVg9BZgaFP2xCoAu9Gyej5RFVxPvXjf ZAQBHDRWfxQh9xzAmwONQO7k6vglxhLApdGL9O+I94rlLeet66b3GFKzFIraV1ecAKrPl/57sGTr JN6YVbQ6bs8wc1uBp+fvkTIrH42IA6BsbqjClL95mTsFv/uXWar4db7C9dN4Ux4MA6kYPQzUNWSh W5bxfrG/UzBS5mWt0GT/akUJIE+fHOcjxArAgyTNucsnGD8OfPTil8QZ9Rq5lw9YNZ+oXNZ8wHf/ MkzuEe+s47+Pwv2NQMwWBBmeHiIFpjSC940DakKt66ezNXHxsIdj2QkANACi5T45+CD9AzmGRFbs BIBVXjztTiQBTuQDttyoNOevXob+gO+u/U5uCzmFN+EbpUClL622y/xjI/2jF5EEOBJ6xqr8tAeM Je8vOwEkqAOb8Cb8A6CGbL1rZIUsOAiEgH5BrjERpwTZPi/Q6jKfodkpqHWspuC3/2JV7apXA0Wb kAAeYuNT/UcWtf+OCZuB9nYWEj8xqgSzW5Fqw1CpPtORpcGHCeB/v+rV4oIE8BD4xhTW7QacnJ2g OwUjFV54D1n88gmXeVlrTBW/QgJYQYTJPRgtDfZ4zYA5cmH4PNlj4hFf0Tq8lyzVD9itS6yvb6t/ AwlgxZRc1pDWK42sCgMe1g4UXT1NEtqCMDfAQgRK3aYqzAVbHVAVQAJYKGD0Ftxqth7Yzntz4hq9 6RjCAqwUsCsUiFcGaM5az76HBLBSs9vSLaRryErYfmCM+PJoL6ntriARQAQ49s0OARGR61yReXeS xWJ5CQlghVgYugJnbbOECwf+HbD1uP5iDS1+iq3EzEeE1LO/QrP7fzm0DOjXuh4J4DEA15mNycCn JQpvTl6nKwawY8CZ90CyYVYgXRt9qK657jWHNQJRsQYSwOO8AMpdPnKhhnajuXYgwTk+M0ra7+hJ zfkSyivYQU9D4n1n3Ij6WJEpa4udEoKP6gQMRgJ4AmBZCMTQXD5zVHhwe+omUd2QkAprPolR+hHU iGROKBqt2GGstdT+T7sTAOgBxsh9yzBD/OQbAG/Imflp4gwHxo1vTd4gyusiIrBkk3D5diwlrnib 8Jr51LbQFDsoCn/3L0Ok23AceAEVAXCVne1MU6QHOZDTlxpIhi6anpPA52GF5OqkW29XGwv/1e4E kGNIivcWYUb4acjWxzNWMXg58gWwL8F0W0PKrXkkTOaBfQXL7Ym2uNh46p17G2QNP7CvIpAhxcNb tG4WL/KTAWWz4721tIvszAdCIRhDPnJhH4lR7cDwYDlb1KXuI/ssgi/s6wGoEz7fIXadwgv8dIRI t1JvQS1rW4TtXU68MXGNNPbX0y3H2FewPPkonibyeJ32mcuC3/3Lw10HPwuVuo/jBV4YktVh5Nr4 FYLnARHM0wIqZy41kPi2QPQIHK4e5DZSZSn8wm4EUKWp+kWozP0iXtyFs3CROZOxW4RXkghuTV4n J/rqaFUlzBE46vlzIWmaqGONjY3/bBcCKKgr+H6EwvMcXtzF5QMOdlfQCzvxfDc0uDp2iV5lDiET Pi8OqEpJttwuNeR9bBcC4PP5L2doog4iYy9yWEPsSr/tYGknnkclC2dI56CZ5JvSUJvA3i+gljW2 PFNqYV3dopWEH/2BPab0eG/s/Fq8hJN4IxX7HnOaJqFn1SYQXj1NtxrjS8aO4rUy3576xYuIPvoD AmPmWthfjhf2mXq1aRJAT+DJ+YGrY/2koiOf7KA8J3xu7CBeK1w/k2NI8bALARSqMz8Kkm65hhf2 2T2Bk32HMCfwlAPXRzpwjp41QG9g6cnoJHXouUVKhz36A436xrdAgQQv7NJyAnXdlWR0egQt/Uld hZQ3AI1Ee8w8HDhaal+KxO12sSbnd0sPAbSCF9PVkWWoFrPU6sBaUmLJITcnr6GlP+WMTg+Tht6D JFC6BZ+dZy8JzheZsrK0Wu2LSyIAQIW5IM5XhLryS9cQcCHpuijSNWhh/I5BJlQK1DdkdEiAz86z IbEtRHvEeOTHSyaAKkvRKn/Rpkm8qHZSE5J70dlvzAs8PSQAKXOYNkQP9Fna093Gai37vlgyAfA1 /F+EyLZhR6Cd8wJVHQV06zDODzz5QNhU3J6FMwWLhA8Vdu4xZ+yGRb9LIoA6Yd33M7QxZ/Gi2l9W DIZlQGADvYEnH1h7XnNegNJki0SCKrCtUV/+1tIIgGKQfH1qqJdoLY4GO6JuK95Ayq180j96gZMa g/Y6EzPj5PCFfbT3hM/NAntRxJvvFGh5f1gSAQBqTMX/Eix1G8aL6rjaLSgNQ88ALPTEsODx/QLH eg9i09BCq0+ta2wF5jTeAsKAJxPAEdOR/xajCLDiRXWwxhsV56ZowohkoJkuhyERfPfAclYQYEFP YIGtwQo/8X5z4Q+XRAAwXJChiS71asWZ7uUADMlk6mPp/MAIFf8iETzsCUyRoxf2EyxPL0QnYOvQ XrPgkyURwIO5gB2iTTgXsKxEsJ7wtJHk7KXjdDZ8HnMEXx/Yz3igu5xussJn5cnKwbn6+JAlE8Cp jvr3o5W+PXhRVyY0AJ09WEZyeayXzM7PIAPQXYMjpMyai2pDT8RqkqwKP9GoeqJQyNMJAMKAFE14 OTZlrGzpMELuSWq6BOTCcCctz+3s587UTbLbkIBDRK1PWmLjNXDEWP3RkgiAVgkyZW3xE7new4u6 8lWDENlWUmHNo8U1IDHmzAdKqKA7iM/GY6ZSqdC90pi7dskEUGMt+FmUwrsTLyqzlpPAoJH1rtFp iQCSpPpbKhKMUmOPDSGLjZklTxgOWhgB1FnqXioyZpRiWybzECjZTBHBbtJx10QRgfOJkMBeBuij wFHixw0HBUuOGo6+viQCoBeHWqq+CJa6jeFFZa5HAJ2FXUNWp5MkG5sZJYXmDMwHPKocKNt6qUiZ /t6SCQBGDHepArR4URl+wyl3uLqziPSN9JBZ26xT5QOilb74DDw8gCbaOL5blfRvSyYAiCNAbMCr 1WUeLyzzk4WwxfdQz1568tAZdAjg3yi82oRNQt99FuaztLGRcXFx/7QkAqA1AgxFvw2VedzCC8ue 8iH0EcA238F7dzjfWTgxO0b2mNPx3j/0MsjQRx+rVdS+umQCgKaCDH3sMYy12CdNlqaNJKobErqT jsune8hKQmXueN+/gVjFDktD55dvL5kAaC/AVPgF7CPDC8vOEWQQ2egZ7iRzHN1qDFUBCH2wce2b CWK3y/ltqe/bhQDqmuteS2wLPoleAHsRJvcgRy9+Se5wdAQZ8h4xKtQV/FofQLRxosyQ9xe7EACg zJLnESDeOIMXl81NIi4kVRtBNDflnGskgoQg9AbgrMBXw2XC9baq9sIouxHASevJnyUog3BvABfe DpJNdNmQazqFMEUZq/LHe9x6f3ltpi463m4EACWFSnNhiL/QFb0ATukUijnjDcAINYQ5GKrev7/p 6qiyR7QEPxsB0J2Bhqp3YtoClGhAHBoeEW8k+8+XkFuTNzjhDVwavUjCZB54bymkaSKaFJcVr9qN AMALKDBkeOKUIPdyAyBGYrlrYL1YKYxNl1py8L5CJUDidnq7YPv37EYAgMq2yp/EKHa0oJvFwUoB 9eY8e/k46/sGVNclOChEIUTmYSmTlb1tVwIA5BvSVvuLN+MGIU72ka8n+zqLyd2p2+xNBk5cIzsV 3k5/L0Ol7n3VxpJ37U4AJ9tO/iS5LVSIXgB3Q4JcYxK5MtbPyrzA9Nw9evMwkrlrX4jY3f4EcH+P 4B63AMmmKTQY7vaTp2jCSfdQBwtJwEZOXzrq9NUAr5ZVfe5nVjmGAOqb699IaQs9ifLhHO8pV/nT yUEby6YLzw+2E3/JRiQARxEAnRA05X4aLNlyAw2F24hW+t0nARZ5AjAJuUsVgATgUAKorHwly5hQ jHoB3McuyhOAgSLCEhIAhaSi9kwkAEcSAD0joC77IFLuZUIjcYLGEm0kuT5xlTV5gFN9h506D7As BADLCIuNWd4gQ4RGwv3EIIiRjs+OsYICjLfV9Oo1JAAHEgDg9OXTP0pSh9Z6trjY0FA4PmVGGdS5 yydZITk2MH6ZhMndkQAcTQAP1oqHSbdfRSPhPkByDCYJmX5gnRhsYHbaVmDxlr48VdLyEIBWK3gx 35QW7yNaP4tGwv1Js4aLXzLeC4C9iqCG5Kz3KVy63TGdgI9tDlIUvROn9D+NvQHcR6I6mAzeu8vw NKCNXrLqrPcoQu6pKZeUv7VsBACA/eShEvd+NBLuaw3CijKmH/HAWadVCYpV+jc9QhnYsQQQJ4x7 IV0Z5eMrWo8bhTheEWjsP8J4Ami/o3fSvQGrSZYhrqFSWPnKshIAgNfMey1VHXGI+iWwQYjDgLl7 pm8igu1BsELNKfUf1ZFpj1gO4ngCuF8VyP9VuMKzHQ2Fu0jXRTNeO+DW5HUSqfByvnJt6zpbmSnX fqKgi0bdc8/nq5P/Hih2G0Rj4Wh7cFsAGZ4eZDQBjEwP0dqHTpejEW2YKNZk/mXlCICCQlH7aol5 9x5vLA1yElFKH3rPAJPPxOw44eminE/rUbLxcqok8v0VJYD7cuI1P0tQhzRtb1mF+QCOAVR3bk/e ZLw4CIibON0Ep8LP0qCz02qwpSJbkfarcNl2KyoIcawjULmDHrtldjPQLCk0Zzjf4JY6vElwXPA9 RhAA5AP2dhRuDpW5Yz6AQwDFoLGZUUYTAKgcO5tKsFeLi43yengwqMcMAvhKO4CvTw0NkGxAGTGO oNCcTmbmZxhPAOXWPCdr0lo/xVcl/8djbHFlCIDOB5hP/pCniyrwblkzjQbE/kaTY70HGK8SBARQ 0ZHvXGrAEo+BanXZR4wjAIBAGPfmLuWOek9sEmJ9KzB02TH9OKMHkNQWLDlqOPo6IwngfpNQxa8S VIHtmBRkL5LVoWSI4T0A9wlglhYxcZ4OwDWk2JhZ8oidgMwhAEhOVJvz/xQq2dqDxsTONtPjvbWs EAWBkWDIVThN/V+0abLcwl/1BPtbeQJ4UBko1Wc6XWUAVlbFtwXSG3jYW/7zY4UgCBzYfJxjSHSm +v/F+u76XzCfAL6qDJSacyP9Ja5DznBzYGf73s5CehOv+OoZWrYaxDXYRmCnLzWw4u0PB/QLU7UR zuGZtboQnnrn3kdMADKTAOiV44rsV5MVQX4+4nVDXHebS625ZHh6iH4wwYDgLVrTVUKCpG6sGQEu MKeR0ZkR1uwHGLp3l5Y0dwYCCBBtmKkyFbo/xeaYRQD3OwWzX83SxGb5CV05WR70pIx/DxWHDk7d eaR+PSzdyDelET+xK7Ozy+oQcnmsj7DpAMmGyT2cozVb5t1zynjgfdYRAL1qrC3/jVxtQjHXNAXh rZlLxaAwlvrkoZUxeq11pj6WkVLWEK6cH7Swbk9g95CV+Is3OkX2P0cXX1pXV6ER/McAAA2gSURB VPcSKwkAsK9j30+jZN7FXhxpFALjz9BF0/LUC9WwG50eJvJrrSSLIgImeASQo0jTRJAeVi4JJUR1 Q0LnXrhOAMESt5GDncV/XYCdMZcAAL71vm9ESD2rudAoBL3yl0Z7n0nMcoyKszU35XQJC3IEK9Ez AQRUZuXT24DYaPzwOx/vrXMSkdagc0cNla+zngAARcr092KUO5rZTAIgQnFx+PySDQfKWPD2PdSz lyS2BS+Lvh28MZM1YUR2rYXxij9PmwR0hiYgP9GGuTJTfsQj5L/YSQD3dw6mfxDLUhKAOnnnoNmu b02oGsDore6WkuzrLKYJBtpx7ekZwPfjaXfSm3/uTt1i5Vv/mwfCKehY5Lz8t8yzp8FU9sECbYsd BHDfE8h9L0rmW82mnADoz5nuaInN5jjjgf52KG9Z75roBZgQJkCSDsQvoU6/EFKAz4HPDZFupWP8 g90VxEz93mA0bDf8bwqCBrOkxPrM3lrLGlueKbWwzvLU5B/7COBBTiBW4Vfu3eIyw/SbESZzJ1oq bl/OJhkw1un5ado76BvpoX6+gpy9fJzUdlfSQzAghpFnTCF8YzIpMPHo2fgvu8rI6UtH6c+9PNpL z/SzpbFnMQdCGC+OJwDDZJ7Dh617P1uETbGLAOiOQWHBT3bKfPb4tq5nrCcAbxrFdSH9dmZEAowy aPhdYF4fZLEA0HMAwzFcNPZHeUnQdcnp3Qwtq20pbZF7G2QNP+A0AQDym1Pf2K2J38PEZqEAyWYi vNrEeI18ZzoQIiW0BXOaAEKk2+5UGPP+dZG2xE4CeNAsRMWr8X6trowZIPIXb6B74+Htioc5B7QK IKnJ4bmSuQxNVK7i8ndWf3GXAACbKze/kqwI8WPCvgGok8NYLLjXeJhz5in3v7a7glYt4m7sv72r TF34wTPYELsJ4MEUYaUl3zdc6nF9pURFfETryOGeajI1N4kWx7ADCVEuLwOh3v7zBeY0HuzhdEoC oEVFLHUvFWhS/0+YzMMCyZDlvQFryf7zJXT/Ph7mnbYbUkbOU9gLsaod3Uc6qj96RtvhBgE8EBWp aS/9OKktTEUZ5dxyDV2AyCTUy/Ew70DnJJf3APiKXMeL9Nk+QqHwBSQAWEceF/dPteer301t2ynw d7DkOMz0C9qz6QwzHmaeriEra/QVFl/2c7HFK4NqT1tqf7QEm+EWAXxTcpyvTQ0Nk7o7JC8A3zPf lMr4XXjOfED/b9/5Ys4m/yJk27v3mot/vURb4SYBPMgLlBr5/75T4aXebscZAjD+bH08uTExgFbG 4HNxpIvuxuSmDLvrWLYu3g3CXiSAp4QEedqUXyYqA+u9W9dO28P4YUDm6lg/WhiDD/RhVHcWES5K zcOqL+oFdKyumfeaHWyE2wTwjwUkgjdz9Al5gZJNY0uTwQolfaMXCOHIgAxXT8ddE2cHf6IVfl2H rNW/s5NtOAcBAKBHOpdym4Kl7t2QQHkWGaxulirhONMZnxkjBaY0Thp/oHjLYImZ77qErL/zEsDX +wcMeb9NVUec9hGuv7fQCx+l9CHWuwY0foYfGHoSXT2zLEIpy17yE66dKdCnZNcuvt0XCeA7CcK2 yp+kqiNDgyRbn1oliJBvJ4ZbbU4xNcf2c2Wsn8RyUPbbq9VlPlMT0/SlruxtO9uCcxLA192DuvRP E5SBYj/h+kc2DoXIttGdZPMMGevF8/gzMTtO6xtwLvHXsmo+SunbvAiVHySAxaCp88DPc/WJSYES t295A6CoIx04x5iZfjyPP3CPmi+f4Jzr79nqQsLlnpJEddgHDnr+kQC+2TOQpA5T+AnXzfhLNtJa eNBMgofhcT/1HyxT4d7Cj9Vkp9yrq1wv+MSBzz4a/7faiA1V7xTqM2KzdPF9plta2wwSAOPP1fFL tGoxB0d871S07/mbHZp9kAAWRQTCuBcq9Ht+U2zK3Huy98gYdPzZMAHIyAOjvtCSzbW431+4abBA x/ODUXcHP+9o8E/qG6ixFK4XmLOFkqvNM6PTI2hxDDqwLKWyo4BjQp+rCcyv5GoSvCorN7+yDM85 GvpCVpSVmwti93UKus23tfOo+MOMjP+B7nJaypxTbj9l/BWm/M1areDFZXq+0cAXGhZUGws/KrNm FR/p2XcDJLdR9HPljB82I/lwSOQDQpidMs87YPyWhWv6IwGsiPyYKffTMkvO8ZN9h0dg3TQ2CC3f GZ8ZpfX9fLln/D37O8o3LUPMjwRgl7JhM+81gTH37xWWAoXwypl7d6duO3T7Dx6Q9h6ktf255PZ7 trrMR8q9JeX6PZ84ONuPBOCIsmFTx76fFhhSPEvb+SrpwLmZkekhnBdwQKX/+sQAKWzP4FTCz6d1 3XSKOrL+GdV8kQCYRARFiux3ys25sfs6i7pU1yRzSAT2ORBedQ9ZaQ0GTyF3Sn1BUrexXENiHoyp r/DziwZsz0ThPlPZB6XWnPj7RCBGIljCgWoL7PPbqfDhlJhHpMyru9jAc1vkCi8kALYAZrUfJgIQ DsUcwcJdftBaPNhdTvzFGzlj/H6idVNJbaFHqwxFv12heB8JYCWIoMS4O66sna8TXTl77+bENZws fMKB2QtY45Whi6ZVl7mS5Yexc546OrR2aQq+SACsrBjU1T1fJkt/u8CQ4VlpyZM39h0duzTai/sD v/XOh7f+TXLkwj4SLNvKobf+xnGeZmdzsS7r07rlre8jATAxWdioL3+rwsT/jz3G9ENHuquvG2+p baMzI06dJ5icnSDK6yKSognnzFvfp3XNTJTMW1VgSttyXLv/TQY/l2iYK0IGx+O+t9dc9vtyc25G TWdpl+jKmZmB8StONX4MST7rXSMpNKeDzDVH9vStnQuTeXYV6FNjoTIEpM/wZxGNcWXzBHEvnLWe eG9fR5FPlWXPuYbeL4fNt3U2WDXG1aQhGP75QQspt+bRoiucMPzWNbZwmcf1HENSLtT1n3FRJxKA M4cHwj7h64et5Z9VWooK93cKelqvNM1cGesj9zgwfAQhDqj1mu9oSYklhzOS3d4t9w1/ty6hpJby 6CqFy97KiwTARXWisxfOvnfwfIXP3o7Cc3XdVbeV18Q20CVgW4gAb/uB8cuk5copkq3fxZmyHrj6 4XKPS18bfiXrDB8JgA1eQbO2+bVj5w9+vM9ayCu17FYfvlAzor2hsEHGnIlahdC5B2/6vpELpPVK Ix3fR8g9OdHCC+U8P5HrvQipp46njoorMRR8yGLDRwJgWynxiPHIjw9aBZ8JzFm8svZc3cmLtRPq 6zLbpdGLZHh6iEzPTy+rchG49bPzswSqGJdHe4nqhoQc7K4g6dooysXfypmMvhfl5gdJttyOVwad 2KPjuUFJF+4HR54tNC42kkGD7su393UU/4WvT83I0sZYM/TREwXGNFttdyURXj1Nxdo6AsQAnsLY zCidRwD9AnhDL7TkCJ8Hnw9GPjU3SUamh+mFqD3DnaSNMvbjvbVUPL+b1uMLkW4Dt5hTI7q+QtfJ GIWfNUsXnVFq2P0xQ1p3kQAQ3+42PGmt+VmeJvkvWZqYPdEqP22wxG3EX7TRBok22GiUQhloriGJ Ntaa8wJSf6GGNPbXk3NXThIRRRaSgWZa/hz+D3+Gv2/sP0KOUJ8H67UF7dn0NuTEtmDanQ+QbKKM fQ2nlHi+dvGFlIsv234xSxt7KFebsLqGurZ2XMOFBIBwHLRa7YtHjIU/Ljfv/qzQnMaj3l7iENm2 W75i11nPR7jj8MDDhB246g8Af+biRt0nGb2/yHUmVOrRk66Jri225LpVafi/EBwXfM9Jnhs0HK6G CXXautcOde79dZEhxyOxLSQnTOGpDhJvGfFuXTPvTEb+nZieIjo/4YZpMHoqri+vbM/bdtha8R6/ m/+yEz4raCzOQgiF8kzKOxB8kqtLCYpXBpZTD78lTLrtNmS2oZ7NVVIAg/cRrZ8NkmwZjpb7WDM0 0aXFuvQ1YPRxdXEvOfmzgcbhpITw0tnOhrf3tQt+k6NK/E++ISU+x5DYEK8KlEbKvXt3SDZd2yHa OOklWjPLpmw+Hda0uMzuELkOh0i29SWogqS7dcllOYYUjwNdJX88Z6h9B/7t+AwgASAe6jmALjah 4ejrBzoP/LxQnfJRvpb354y2nR45lAGlqcObIuRemhDJ1j7f1rXXdohdp3yEa+dBn4/OHSyT9wA/ 5/4bfR2B3AZFUuN+QtfLETKv3ii5rzTHENeQrAj3S1fF/rHamPfuUerfA7kRvMdIAIglJBdrFbWv lkv4b5UYM99NEfp/VKjmfV5uKQgqbc+JT1QGJmRoog5mamOa4tXBTQGiTU3+oo1NoXJ3TbjMvS9U 6t4XLHHr82pZtSgEUV/z1ddqgqVuTWmaiKYMTczBZGVwQrk1P77MlOdRqE77LE4S/P6BzsqfHzVU vg4kxoIBHCQABLfA5/NfVlxWvApEsap2FQ0gjNrzJe9WG0vezVNlvut+ZtWikKdKor+WT32fbOr7 KajvDT8HrzcSAAKBQAJAIBBIAAgEAgkAgUAgASAQCCQABAKBBIBAIJAAEAgEEgACgUACQCAQSAAI BAIvAgKBBIBAIJAAEAgEEgACgUACQCAQSAAIBAIJAIFAIAEgEAgkAAQCgQSAQCCQABAIBBIAAoFA AkAgEGzA/wcbYNStG2MB/gAAAABJRU5ErkJggg== "
       preserveAspectRatio="none"
       height="67.73333"
       width="67.73333" />
    <image
       y="262.73242"
       x="-29.241783"
       id="image51"
       xlink:href="data:image/png;base64,iVBORw0KGgoAAAANSUhEUgAAAQAAAAEACAYAAABccqhmAAAACXBIWXMAAA7EAAAOxAGVKw4bAAAP 2UlEQVR42u3df2jc9R3H8ToGgiAVlNl63/teGP4xaK0My4qp7d19L5emktkyaOisrODSnLkkd7m7 JGudOoIZna1rhdhAWbW2TLfOUS3IGgeFQIYtGlCnBSG1KE6UQkbFIQiF7z6fu+bH9b7f+/X5fq/3 zff5gRcVwVYufT/e7+99Pt/vd8WKFStuIYT4NnwIhAAAIQQACCEAQAgBAEIIABBCAIAQAgCEEAAg hAAAIQQACCEAQJZzwit+uKqndb32RLhbS4Zf0HrD/9R6N3/FZwMAZJlldc+DPwn0bv6Fltz8O60v 8rqWjFwUMYsTzofPCwCIR3P3Yw/+6J6eh2Kimw+IYj6q9YVngn2R70XRm0VJWgUAAIB4Ix333rp0 fA8mw+dEoX8lYloFAACAeHZ8D4vxPbxDju+imF8P9oU/CfZbFzoAAAAfgpfH92QkJgp8MNgXPab1 RWeC/dHvRcx8wd8YACAA4NXxPbw+kIwktP7oC8GByDlR5FcKhW4XACAA4M3xvT+8QxTxqMjronA/ CQ6IgrYKABAA8Gbu2rNpdX58HzAGRTEf01LGTDAVvSZi2hY8ABAA8N74Lq7R14sCTIiiHRcFfy6Y Mq6ImNYBAAIAnkwwuXGNLsf3VHRUT0dP6yljVk8b5kJsix4ACAB4anwXBdguxvZcMB07pqdjM6LA rxUVu1UAgACAh76Q63zgtvz4njYSotDHRaFP6YOxKyJmUdLzAQACAB4d36NrREffGRyMjYqiPi0y W1LodgEA/g4BgPfGd1G8x0Vm9Ezsmp5pMxcTKwQAAAAAvLqf/sBtgXRkgxzfQ9nYuMiUyJyeXVro dgEAAAAA74zvg2J8zxg79Ux8LJSJnQll22ZFTKsAAAAQjwIQGAhrobSxNZRpy+m5tuOhXNtMKBc3 F5KNm3aFDwAAQDwCwML4njESei4+IYp7ShT7XFGxWwUAAIB4C4BAylinZeI7RaGPiSI+Expquxwa EoW8NLkqAwAAQJoTgPz4njO26tn4iJ5rPx4aap8RMRcTtw8AAADxBgB3Pt56e358H4on9GExvg+1 T4eG43OhYVHk8xmyCgAAAPEUAHJ817OxXS1yfB9qPyOK+3JRodsFAJYbAD8gNz3uAbAqGQ3J8b1l KD4SGomfbBlunxExlyZUSwBgWQFQ9edEXIwxLf6O7ddT4c6Vu++/QxmAluEtE6Kwxfi+5WrLiCjy GwMAAAAAzZl07LNAKvqwGgAjW8zFAAAAAIDXog3GxgAAAADAx6liEgAAAACA5Xw5UOE7AQAAAABY 1kmFOwEAAADAt1OAsR8AAAAAfLxFCAAA4BoArJu/Kv0dLXNYCAAAAAAAAAAAAAAAAAAAAAAAAAAA AAAAAAAAAAAAAAAAAAAAAAAAAAAAAAAAAAAAAAAAAAAAAAAAgAUAAAAALAAAAABgAQAAAAALAAAA AFgAAAAAwAIAAOCBIK5FtUCa+f8dAAAAAAAAAAAAAAAAAAAAAAAAAAAAAAAAAAAAAAAAAAAAAAAA AAAAAAAAAAAAAAAAAAAAAAAAAAAAAAAAAAAAAAAAAAAAAAAAAAAAAAAAAAAAAAAAAAAAAAAAAAAA AAAAAAAAAAAAAAAAAAAAAAAAAAAAAAAAAAAAAACApwLzVGAAAAAAAAAAAAAAAAAAAAAWAAAAALAA AAAAgAUAAFCUrvFMPjuu59A/XinK+dkP8vn1sacAgAUAXgTg1LtnzfOXPjAv/udSXT/Eb7771lzz m58DAAsAnARg49gus2sim0+r+Gc3AOg42KP8Q5STAAeBOAgEADYA3PfUdlHEOXP0zQnz8NsnFzL5 8b/MC59+aF64VMgX//3a9oM6+/G0KwDI7q+yCt3/EQAAAAAoNwGUK+5qV+uzuxwFYO3ebQ51f44C AwAAlAVAdn/VNfrGhKMAjJ4+4lD3BwAAAICyAMjLgG+++5/ShyWnCCcB+GLua4e6PwAAAABU/BJQ Xverrq4jWUcA6H7paQe7PwAAAABUBGDj7x9T/sBOvTfpCADnL33oYPcHAAAAgKq2Af8mCli18659 crsSAK3PPqr8g3tw9JcAAAAAUCsATkwB2dcOKAGguvUn/3seCAIAAFDnQSC5/6+yLn55qW4A1u7b lp8inO3+AAAAAFA1APJQkDtnAioDoLr1Z939AQAAAKCmo8DyBKDK+tPU3+sCQHXrz7r7AwAAAEBN AGT/etCFMwHlAeh6MeNS9wcAAACAmm8GUj0e3P3yMzUBcPajaZe6PwAAAADUDIDqFCALuloAVLf+ ynd/AAAAAKjrdmDV48HFZwLsAZDfGbjX/QEAAACgLgBUjwcX3yBkDYDq1l/l7g8AAAAAdQGgepNQ 8ZeB1gDIg0NKW44Vuz8AAAAA1P1EINXjwR3PJ8oCoLL1J7s/rwYDAABwEYCNY2rHgxdvECoFQHXr r+PgHgAAAABw+5mAKlPA4g1CpQConPuXDwrl5aAAAAANAGDrHxMO3CBUDIDq1p98HDjvBWC5uQBg yVOBLyjcoy/v778RgENnT6h3fwBgAUBjAJCP/1a7QejRIgBUtv4Wuj8AsACgce8FUDkefGjyxAIA Ko/8Kur+AMACgMYBkP1L/Xv2hTMB6if/iro/ALAAoLFvBlKZAvKXAQp7/yXdHwBYANBYAFTeITD6 xhGlb/9Luj8AsACgsQDc99vtdX+BJ+8QrPepP5bdHwBYAND4l4MenqxvC0/CUe99/5bdn4NAHATi IFDjAZBvBq531TM92HZ/AAAAALg5rwdXvUmoltV97CkAAAAAaCYAVKaAmrYP5762L34AAAAAuDkA yEx+PO06ANlXnwMAAACAZgRA9XiwcvcHAAAAgJsHgOpNQpW7/wEAAAAAaGYA5OO/3ev+MQAAAABo ZgBUjweX7/4AAAAA0PQAqNwkVL77AwAAAEDTA6CLOLny7xYEAAAAAG8A4PRuQP45gnu3AQAAAIAX ADjvwk6AfGQYAAAAADQ5AG6dBVicAgAAAADAl+cAClMAAAAAAPjyJGBhCngEAAAAAJoRADe7/+IU 8AoAAAAANBsAbnf/qqcAAAAAAGg8AI3o/lVNAQAAAADQWAAa1f2rmgIAAAAAoLEA1Nv9Vd4HYDsF AAAAAEDjAFDp/iqPBLedAngqMMulBQAWANTb/edfEKryTkDLKQAAWADQGABUur98KYgE4NS7Z52d AgCABQCNAUDlm/+O53vyAGRfU7t1uGQKAAAWADT368Hnx//5l4PW+27A+SkAAFgA0GAAVLq/7PpL AZBn/FVW0ZOCAYAFAO4CoNL9C68FbysCQGU3IP97Ln1aMACwAMBdAFS6/6HJEyUAyKh8GVg0BQAA CwDcA6BrIqf0Ia59crslAF0vZpyZAjgIxEEgDgK5B4BK9z/13uT14i8FQObil5fUpwAAAAAAcAcA 1e7f8XyiLACqW4L5KQAAAAAA3AHgwqf1d//C1l9bWQDW7tumdDIwPwX8+TkAAAAAcBoA1e5f2Por D4CMyg1C81MAAAAAADgMgEr3X9z6qwyA6pagXJmKUwAAAAAAVA2Aavdf3PqrDICM6mPFK08BAAAA AFA1ACrdv3jrrzoAul962uUpAAAAAACqAkC1+xdv/VUHgOr9AZWnAAAAAACoCgDV7l+89Vc9AKOn j7g4BQAAAABARQBUu3/p1l/1AMgtQdVlPwUAAAAAQEUAVLt/6dZf9QA4cX+A/RQAAAAAAGUBUO3+ 1lt/tQHQcbDHpSkAAAAAAMoCoNr9rbf+agPAifsDrKcAAAAAALAFQLX722/91Q6A6v0B1lMAAAAA ANgCoNr97bf+agdARvX+gNIpAAAAAAAsAXCi+7eO7XIUANVHhpVOAQAAAABgCYBq95fPC9CzbY4C 4MT9AcVTAAAAAACUAOBE9+9++RnHAZA5+9G0g1MAAAAAAJQAcPjtk/kJYD71bP3JJwa7AUDXeMbB KQAAAAAAan4gyNZDifyUIJ8KLDP65oR5ePLEQuS/cwsAPa1+f8DiFAAAAAAAjr0d+Ma4BYAT9wcU poA/8FRgFgB4DYC1e7flLwWWRr4abGnOz35QFNspAABYAOAtAAoxyqfC48C2HNhj7hgfBAAWAPgR AF4MwgIAAAAAFgAAAACwAAAAAIAFAAAAACwAAAAOAnEQCAAAAAAAAAAAAAAAAAAAAAAAAAAAAAAA AAAAAAAAAAAAAAAAAAAAAAAAAAAAAAAAAAAAAAAAAAAAAAAAAAAAAAAAAAAAAAAAAAAAAAAAAAAA AAAAAAAAAAAAAAAAAAAAAAAAAAAAAAAAAAAAAAAAAAAAAAAAgIeC8lBQAAAAAAAAAAAAFgAAAACw AAAAAIAFAAAAACwAAAAAYAEAAAAACwAAAABYAAAAAMACAAAAABYAAAAAsAAAAACABQAAAAAsAAAA AGABAAAAAAsAAAAAWAAAADwRiNQeY9quzgEAAABguSdt7AcAAAAAvyYV7gQAAAAAX3b/2Gcrd99/ BwAAAAD4MIFU9OEyxQ8AAAAAyzXaYGysQvHbAxAa2XJUFPo7LcNbvgUAAAAAb439VXT+8gAsjfhN f6xnY52iyPa1DMdfFQX/bwAAAABorq0++W2//MKvwjV/7QDYTgnZ2E+DmdivRAEfEIX6lvj1cwDw HwDXD5mQm5t667h+AKyycnf4juCgsSk4FE+I4j2qD8ffEUX/LQAsawBuIZ5NY/6gVcloaP4yQs/F X9Vz7e8DAAAQnwBgexkxULiM0HOx/fnLiFz8cwAAAOITAKxy5+Ott+vZaGswYyRE0R7Vs+IyIhu/ CgAAQHwAQNnLiFSsU88aI6LYT4pifh8AAID4BIBylxGiEHeJot0fysTeErkMAABAfAKA7WXEgLiM SIvLiEzbUYHCtPj1KgAAAPEBAOUuIwJpY6s+aIwEM7GTotDfBwAAAACfJ5Ay1mnXLyNEUZ8JDhqX AQAAAMDHkZcRgWRkg7yMEBPDxPXjllcBAAAAwM/TQndYC/SLy4iUMSIAOC6KfwYACAD4HYbeh9Zp A5FdWio6Jor9jJgcLgMAAQAfZ3XnA7flLyP6IwkBwIQ2YEwHB4w5ACAA4PvLiM1btf5IThuIHtdS xgwAEADgMmKd1hfeqfVHx8TlxBlR6LMAQADA95cRD20QlxKJ4EBkXBT4lMgcABAA8PVlxM+0YO+m dlGMOVGkx7W+6Iwo9GsAQADAx7m7e+OawmVEeEwU/mmRWQAgAODzy4hVPa3rA8lNCVHg48G+8FQw GZkDAADgQ/Bx7tqzaXXhMmJzLpgMHxOTw4zA4RoAAADx+WXEPU+EdwaS4dFAMnI60BuZBQAAIH5O x7235i8jEpsSAoRxgcOU1hu+wmcDAIQQACCEAAAhBAAIIQBACAEAQggAEEIAgBACAIQQACCEAAAh BAAIIQBACHE5/wfT3uSt4X3J1gAAAABJRU5ErkJggg== "
       preserveAspectRatio="none"
       height="67.73333"
       width="67.73333" />
    <image
       y="269.59604"
       x="45.791183"
       id="image3831"
       xlink:href="data:image/png;base64,iVBORw0KGgoAAAANSUhEUgAAAQAAAAEACAMAAABrrFhUAAAABGdBTUEAALGPC/xhBQAAACBjSFJN AAB6JgAAgIQAAPoAAACA6AAAdTAAAOpgAAA6mAAAF3CculE8AAAB2lBMVEUAAAA8cC48cC48cC48 cC48cC48cC48cC48cC48cC48cC48cC48cC48cC48cC48cC48cC48cC48cC48cC48cC48cC48cC48 cC48cC48cC48cC48cC48cC48cC48cC48cC48cC48cC48cC48cC48cC48cC48cC48cC48cC48cC48 cC48cC48cC48cC48cC48cC48cC48cC48cC48cC48cC48cC48cC48cC48cC48cC48cC48cC48cC48 cC48cC48cC48cC48cC48cC48cC48cC48cC48cC48cC48cC48cC48cC48cC48cC48cC48cC48cC48 cC48cC48cC48cC48cC48cC48cC48cC48cC48cC48cC48cC48cC48cC48cC48cC48cC48cC48cC48 cC48cC48cC48cC48cC48cC48cC48cC48cC48cC48cC48cC48cC48cC48cC48cC48cC48cC48cC48 cC48cC48cC48cC48cC48cC48cC48cC48cC48cC48cC48cC48cC48cC48cC48cC48cC48cC48cC48 cC48cC48cC48cC48cC48cC48cC48cC48cC48cC48cC48cC48cC48cC48cC48cC48cC48cC48cC48 cC4AAAAUGRtrAAAAnHRSTlMAAWKYvqw2DK23ELHTGgj34CZF6jRg8/lX/WyDmQMHvw7PGN0j6DHx QfhTZ32UAqkGu8wV2iDmLe88Tvx4j6QFC8gT1h3jKu059Ur7XWPk8P5yiZ8Ew7MJxBEn6zX6WG2E mq7AD3DH8tGQM+LXyryrhl8+6TDfJMYKp5WBWkk63CHQwqJ7aFb0N9kfzQ2vnYp2UeFGHPbJqmG4 oSX5TFe+AAAAAWJLR0QAiAUdSAAAAAlwSFlzAAAN1wAADdcBQiibeAAAAAd0SU1FB+IGGwk0M5Qr nHkAAAOCSURBVHja7dx5W1RlHIdxEAywQtwjJZcWwgUxW1BbVEAjgtQ0EUQTKZLSFpfIdrfMrdSy tN+L7SpJnWmKmcvrmlvOc39ewPA9N3/AzHnmVFRIkiRJkiRJkiRJkiRJkiRJkiRJkiRJkiRJkiRI 5bSq6ukP0Ss4NbXxl7oZ9BDKw3HbI4/SSxj1MycCRMMsegtidtwxZy49hjDvboCYP5teAweIBY/R c+AA0fg4vQcOELGQHkQHiEVN9CQ4QNQ+QW+CA8TiJfQoOEAsXUavggPEk0/Rs+AA8fQz9C44QDQ/ Sw+DA0TLcnoZHCAaV9DT4AARK+ltdIBY1UqvgwPE6jZ6Hhwg1tTQ++AA8dxaeiAcIJ5/gV4IB4gX X6InwgGifR29EQ4QM9fTI+EAsWEavRIOEPEyPZMOEK9U0kPhAPHqa/RSOEDUbaSnwgFi02Z6Kxwg OjrpsXCA6NpCr4UDxNbX6blwgOh+g94LB4ieNwu+Su+avremqO7SAsS27QWuf3qJLzK17fj375+e VGZv78wLsIteVG7v7M4N0EwPKrv+PTkB6DmA3FOV9BpCw0DiAWJwb+IB7j1VSU+BDO1LPEBs2594 gIh3Uw8QB5oSDxDD9YkHiIMjiQeIg62JB4j3Ug/wfuoBRlMP8EHqAQ4lHqBrJO0Ag2Np/x/w4UDa /wl+1Jn2e4HDm9N+N3ikJu23wx+3pf2ByIHWtD8S+yTtT4VzbhLTYwA9n6Z9Zyjv9HByN0ebP8u9 O9xPDyqzo8fyzgesoBeV1/ET+SdEKmvpTeVU8HlDvdWDLVNUT4nX//meimwp8Zhc3Tg9mA3wRfYO zZcU4GQGv0tbSoAv6bFsgDvHAbKl6ABDX9FT2QDdX9NL2QDt39BD2QAZ/gJxUQG+/Y6eyQb4PstP lioiwKkReiQbIP9wfMZMGuD0zvv/IQ+yyQJk91vTxQU4Q+9jAzSepeexARaco9exAX5I4jnL/x1g 63l6GxugL4tfFS8hwI8X6GVsgIuZf4bY/wdYfInexQa4nNDDpQsFuJLS48ULBPiJ3gQH+JmexAbY 0EsvYgO0XKUHsQFGk3miduEAc8boOWyAawP3/3pTzvW719/xCz2GUP/rP9d/I5tPi5vU8MT1J/AQ 6cLGf/v7z39VGz2E8/vJm7f+oEdIkiRJkiRJkiRJkiRJkiRJkiRJkiRJkiRJksT4E8eyqeH18EH+ AAAAJXRFWHRkYXRlOmNyZWF0ZQAyMDE4LTA2LTI3VDA5OjUyOjUxKzAyOjAwwYqhogAAACV0RVh0 ZGF0ZTptb2RpZnkAMjAxOC0wNi0yN1QwOTo1Mjo1MSswMjowMLDXGR4AAAAZdEVYdFNvZnR3YXJl AHd3dy5pbmtzY2FwZS5vcmeb7jwaAAAAAElFTkSuQmCC "
       preserveAspectRatio="none"
       height="52.916668"
       width="52.916668" />
  </g>
</svg>
