{SimaPro 8.4.0.0}
{processes}
{CSV Format version: 8.0.5}
{CSV separator: Semicolon}
{Decimal separator: .}
{Date separator: /}
{Short date format: dd/MM/yyyy}
{Skip empty fields: No}
{Convert expressions to constants: No}
{Related objects (system descriptions, substances, units, etc.): Yes}
{Include sub product stages and processes: Yes}

Process

Category type
material

Process name
"Process A"

Status
Draft

Date
"13/09/2017"

Record


Generator
"Generator value"

Collection method


Data treatment


Comment
"General comment on test process ; with semicolonon 3 lines"

Allocation rules
"Allocation rules value"

Products
"Product A";"kg";2;"A+3";"not defined";"_ELDAM";"Comment on test product"
"Coproduct A";"l";3.2;"100-A-3";"not defined";"_ELDAM";"Comment on test co-product ; with semicolon"

Avoided products
"Barley grain, feed, organic {GLO}| market for | APOS, S";"g";3.5;"Normal";0;0;0;"Rest of the comment"

Resources
"Occupation, water bodies, artificial";"in water";"m2a";32.36;"Triangle";0;0;50.0;

Materials/fuels
"Bentonite quarry infrastructure {RoW}| bentonite quarry construction | APOS, S";"p";"A";"Undefined";0;0;0;"rest of the commenton 2 lines"
"Heat, from steam, in chemical industry {RoW}| market for heat, from steam, in chemical industry | APOS, U";"MJ";6;"Undefined";0;0;0;
"Heat, central or small-scale, natural gas {Europe without Switzerland}| market for heat, central or small-scale, natural gas | Cut-off, U";"kJ";2566985;"Undefined";0;0;0;"rest of the comment (lines related to modification and relevance has been skipped because code 0 and A)"
"Diesel, burned in building machine {GLO}| market for | APOS, S";"MJ";4;"Undefined";0;0;0;"Comment"

Electricity/heat

Emissions to air
"Xenon-133";"high. pop.";"kBq";"NO2";"Undefined";0;0;0;"Rest of the comment"

Emissions to water
"1-amino-2,4-dibromoanthraquinone";;"kg";"D";"Undefined";0;0;0;"Rest of the comment"

Emissions to soil
"Methoxyflurane";"forestry";"kg";"pi";"Undefined";0;0;0;"Comment without acv cirad data"

Final waste flows
"Cathode loss";;"kg";"project_input_parameter";"Undefined";0;0;0;
"Waste, nuclear, high active/m3";;"m3";"A_plus_NO2+6.5";"Undefined";0;0;0;

Waste to treatment
"Wastewater from tube collector production {GLO}| market for | Cut-off, U";"m3";58;"Lognormal";12.0;0;0;

Input parameters
"A";5.6;"Normal";2.0;0;0;"No";"Comment on input parameter A"
"NO2";3;"Triangle";1;2.0;8.0;"No";"Comment on input parameter NO2 (hidden)"
"D";8;"Undefined";1;0;0;"No";"Comment on input parameter D"

Calculated parameters
"A_plus_NO2";"A+NO2";"Comment on calculated parameter A_plus_NO2"

End

Process

Category type
material

Process name
"Process B"

Status
Draft

Date
"13/09/2017"

Record


Generator
"Generator value"

Collection method


Data treatment


Comment
"General comment on test processon 3 lines!!! DO NOT EDIT BELOW THIS LINE !!![[{""synonym"": ""process_b"", ""contact"": ""contact@mail.com"", ""long_term_contact"": ""longterm@mail.com"", ""step"": ""Materials"", ""step_in_project"": ""step in the project"", ""reference_period"": ""2018"", ""time_validity_limit"": ""2030"", ""geographic_representativeness"": ""France"", ""technology_description"": ""Description of the technology"", ""technology_scale"": ""Pilot scale"", ""technology_level"": ""Modern"", ""input_mass"": ""=H39"", ""output_mass"": ""=H36+H37+H38"", ""version_creator"": ""creator"", ""version_contact"": ""contact@mail.com"", ""version_comment"": ""comment on version"", ""inventory_review_state"": ""Valid"", ""metadata_review"": {""name"": {""comment"": ""a comment"", ""review_state"": 1, ""comment_for_reviewer"": ""a comment for reviewer"", ""reviewer_comment"": ""a reviewer comment""}, ""synonym"": {""comment"": ""a comment"", ""review_state"": 1, ""comment_for_reviewer"": ""a comment for reviewer"", ""reviewer_comment"": ""a reviewer comment""}, ""category_type"": {""comment"": ""a comment"", ""review_state"": 1, ""comment_for_reviewer"": ""a comment for reviewer"", ""reviewer_comment"": ""a reviewer comment""}, ""comment"": {""review_state"": 1, ""comment_for_reviewer"": ""a comment for reviewer"", ""reviewer_comment"": ""a reviewer comment""}, ""allocation_rules"": {""comment"": ""a comment"", ""review_state"": 1, ""comment_for_reviewer"": ""a comment for reviewer"", ""reviewer_comment"": ""a reviewer comment""}, ""author"": {""comment"": ""a comment"", ""review_state"": 1, ""comment_for_reviewer"": ""a comment for reviewer"", ""reviewer_comment"": ""a reviewer comment""}, ""contact"": {""comment"": ""a comment"", ""review_state"": 1, ""comment_for_reviewer"": ""a comment for reviewer"", ""reviewer_comment"": ""a reviewer comment""}, ""long_term_contact"": {""comment"": ""a comment"", ""review_state"": 1, ""comment_for_reviewer"": ""a comment for reviewer"", ""reviewer_comment"": ""a reviewer comment""}, ""step"": {""comment"": ""a comment"", ""review_state"": 1, ""comment_for_reviewer"": ""a comment for reviewer"", ""reviewer_comment"": ""a reviewer comment""}, ""project"": {""comment"": ""a comment"", ""review_state"": 1, ""comment_for_reviewer"": ""a comment for reviewer"", ""reviewer_comment"": ""a reviewer comment""}, ""step_in_project"": {""comment"": ""a comment"", ""review_state"": 1, ""comment_for_reviewer"": ""a comment for reviewer"", ""reviewer_comment"": ""a reviewer comment""}, ""reference_period"": {""comment"": ""a comment"", ""review_state"": 1, ""comment_for_reviewer"": ""a comment for reviewer"", ""reviewer_comment"": ""a reviewer comment""}, ""time_validity_limit"": {""comment"": ""a comment"", ""review_state"": 1, ""comment_for_reviewer"": ""a comment for reviewer"", ""reviewer_comment"": ""a reviewer comment""}, ""geographic_representativeness"": {""comment"": ""a comment"", ""review_state"": 1, ""comment_for_reviewer"": ""a comment for reviewer"", ""reviewer_comment"": ""a reviewer comment""}, ""technology_description"": {""comment"": ""a comment"", ""review_state"": 1, ""comment_for_reviewer"": ""a comment for reviewer"", ""reviewer_comment"": ""a reviewer comment""}, ""technology_scale"": {""comment"": ""a comment"", ""review_state"": 1, ""comment_for_reviewer"": ""a comment for reviewer"", ""reviewer_comment"": ""a reviewer comment""}, ""technology_level"": {""comment"": ""a comment"", ""review_state"": 1, ""comment_for_reviewer"": ""a comment for reviewer"", ""reviewer_comment"": ""a reviewer comment""}, ""input_mass"": {""comment"": ""a comment"", ""review_state"": 1, ""comment_for_reviewer"": ""a comment for reviewer"", ""reviewer_comment"": ""a reviewer comment""}, ""output_mass"": {""comment"": ""a comment"", ""review_state"": 1, ""comment_for_reviewer"": ""a comment for reviewer"", ""reviewer_comment"": ""a reviewer comment""}}}]]"

Allocation rules
"Allocation rules value"

Products
"Product B";"kg";2;"A+3";"Biopolymers";"_ELDAM";"Comment on test product!!! DO NOT EDIT BELOW THIS LINE !!![[{""data_source"": ""Source of the data"", ""review_state"": 2, ""reviewer_comment"": ""a reviewer comment"", ""comment_for_reviewer"": ""a comment for reviewer""}]]"
"Coproduct B";"l";3.2;"100-A-3";"not defined";"_ELDAM";"Comment on test co-product!!! DO NOT EDIT BELOW THIS LINE !!![[{""review_state"": 2, ""reviewer_comment"": ""a reviewer comment"", ""comment_for_reviewer"": ""a comment for reviewer""}]]"

Avoided products
"Barley grain, feed, organic {GLO}| market for | APOS, S";"g";3.5;"Normal";0;0;0;"1BZ:1: Information on process modificationB: Info on relevanceZ: Info on confidenceRest of the comment!!! DO NOT EDIT BELOW THIS LINE !!![[{""library"": ""Own process"", ""review_state"": 2, ""reviewer_comment"": ""a reviewer comment"", ""comment_for_reviewer"": ""a comment for reviewer""}]]"

Resources
"Occupation, water bodies, artificial";"in water";"m2a";32.36;"Triangle";0;0;50.0;"BZ:B: info on relevanceZ: info on confidence!!! DO NOT EDIT BELOW THIS LINE !!![[{""review_state"": 2, ""reviewer_comment"": ""a reviewer comment"", ""comment_for_reviewer"": ""a comment for reviewer""}]]"

Materials/fuels
"Bentonite quarry infrastructure {RoW}| bentonite quarry construction | APOS, S";"p";"A";"Undefined";0;0;0;"0AZ:A: info on relevance (the line about modification has been skipped because code 0)Z: info on confidencerest of the commenton 2 lines!!! DO NOT EDIT BELOW THIS LINE !!![[{""data_source"": ""Source of the data"", ""library"": ""Own process"", ""review_state"": 2, ""reviewer_comment"": ""a reviewer comment"", ""comment_for_reviewer"": ""a comment for reviewer""}]]"
"Heat, from steam, in chemical industry {RoW}| market for heat, from steam, in chemical industry | APOS, U";"MJ";6;"Undefined";0;0;0;"3AY:3: info on modificationY: info on confidence ( info on relevance is empty because code was A)!!! DO NOT EDIT BELOW THIS LINE !!![[{""review_state"": 2, ""reviewer_comment"": ""a reviewer comment"", ""comment_for_reviewer"": ""a comment for reviewer""}]]"
"Heat, central or small-scale, natural gas {Europe without Switzerland}| market for heat, central or small-scale, natural gas | Cut-off, U";"kJ";2566985;"Undefined";0;0;0;"0AZ:Z: info on confidencerest of the comment (lines related to modification and relevance has been skipped because code 0 and A)!!! DO NOT EDIT BELOW THIS LINE !!![[{""data_source"": ""Source of the data"", ""library"": ""Ecoinvent v3"", ""review_state"": 2, ""reviewer_comment"": ""a reviewer comment"", ""comment_for_reviewer"": ""a comment for reviewer""}]]"
"Diesel, burned in building machine {GLO}| market for | APOS, S";"MJ";4;"Undefined";0;0;0;"0AZ:Z: info on confidenceComment!!! DO NOT EDIT BELOW THIS LINE !!![[{""data_source"": ""Source of the data"", ""library"": ""Ecoinvent v3"", ""review_state"": 2, ""reviewer_comment"": ""a reviewer comment"", ""comment_for_reviewer"": ""a comment for reviewer""}]]"

Electricity/heat

Emissions to air
"Xenon-133";"high. pop.";"kBq";"NO2";"Undefined";0;0;0;"BY:B: info on relevanceY: info on confidenceRest of the comment!!! DO NOT EDIT BELOW THIS LINE !!![[{""review_state"": 2, ""reviewer_comment"": ""a reviewer comment"", ""comment_for_reviewer"": ""a comment for reviewer""}]]"

Emissions to water
"1-amino-2,4-dibromoanthraquinone";;"kg";"D";"Undefined";0;0;0;"AY:Y: info on confidenceRest of the comment!!! DO NOT EDIT BELOW THIS LINE !!![[{""review_state"": 2, ""reviewer_comment"": ""a reviewer comment"", ""comment_for_reviewer"": ""a comment for reviewer""}]]"

Emissions to soil
"Methoxyflurane";"forestry";"kg";"pi";"Undefined";0;0;0;"Comment without acv cirad data!!! DO NOT EDIT BELOW THIS LINE !!![[{""review_state"": 2, ""reviewer_comment"": ""a reviewer comment"", ""comment_for_reviewer"": ""a comment for reviewer""}]]"

Final waste flows
"Cathode loss";;"kg";"project_input_parameter";"Undefined";0;0;0;"BZ:B: info on relevanceZ:!!! DO NOT EDIT BELOW THIS LINE !!![[{""review_state"": 2, ""reviewer_comment"": ""a reviewer comment"", ""comment_for_reviewer"": ""a comment for reviewer""}]]"
"Waste, nuclear, high active/m3";;"m3";"A_plus_NO2+6.5";"Undefined";0;0;0;"AY:A: info on relevanceY: info on confidence!!! DO NOT EDIT BELOW THIS LINE !!![[{""review_state"": 2, ""reviewer_comment"": ""a reviewer comment"", ""comment_for_reviewer"": ""a comment for reviewer""}]]"

Waste to treatment
"Wastewater from tube collector production {GLO}| market for | Cut-off, U";"m3";58;"Lognormal";12.0;0;0;"BZ:B: info on relevanceZ:!!! DO NOT EDIT BELOW THIS LINE !!![[{""review_state"": 2, ""reviewer_comment"": ""a reviewer comment"", ""comment_for_reviewer"": ""a comment for reviewer""}]]"

Input parameters
"A";5.6;"Normal";2.0;0;0;"No";"Comment on input parameter A!!! DO NOT EDIT BELOW THIS LINE !!![[{""reviewer_comment"": ""a reviewer comment"", ""comment_for_reviewer"": ""a comment for reviewer""}]]"
"NO2";3;"Triangle";1;2.0;8.0;"No";"Comment on input parameter NO2 (hidden)!!! DO NOT EDIT BELOW THIS LINE !!![[{""reviewer_comment"": ""a reviewer comment"", ""comment_for_reviewer"": ""a comment for reviewer""}]]"
"D";8;"Undefined";1;0;0;"No";"Comment on input parameter D!!! DO NOT EDIT BELOW THIS LINE !!![[{""reviewer_comment"": ""a reviewer comment"", ""comment_for_reviewer"": ""a comment for reviewer""}]]"

Calculated parameters
"A_plus_NO2";"A+NO2";"Comment on calculated parameter A_plus_NO2!!! DO NOT EDIT BELOW THIS LINE !!![[{""review_state"": 1, ""reviewer_comment"": ""a reviewer comment"", ""comment_for_reviewer"": ""a comment for reviewer""}]]"

End

Database Input parameters


End

Database Calculated parameters


End

Project Input parameters
"project_input_parameter";8;"Lognormal";3.2;0;0;"No";"comment on project input param"

End

Project Calculated parameters


End